…
``` r
counts %>%
  filter(Sample_ID == 'Plate2-A01') %>%
  distinct(Sample_ID, Centroid, Count) %>%
  mutate(bc_set = 'N1_S2_RPP30') %>%
  left_join(bc.map %>% dplyr::rename(Centroid = sequence))
```

    ## Joining, by = c("Centroid", "bc_set")

    ## # A tibble: 1,705 x 6
    ##    Sample_ID  Centroid                    Count bc_set      target amplicon
    ##    <chr>      <chr>                       <dbl> <chr>       <chr>  <chr>   
    ##  1 Plate2-A01 ATAGAACAACCTAGGACTTTTCTATT 492454 N1_S2_RPP30 spike  S2_spike
    ##  2 Plate2-A01 TAGAGCAACCTAGGACTTTTCTATTA    839 N1_S2_RPP30 <NA>   <NA>    
    ##  3 Plate2-A01 AAACAACAACCAAGGACTTTTCTATT    810 N1_S2_RPP30 <NA>   <NA>    
    ##  4 Plate2-A01 ATAGAACAACCTAGGACTTTCCATTA    746 N1_S2_RPP30 <NA>   <NA>    
    ##  5 Plate2-A01 AAAGAACAACCTAGGACTTTACTATA    698 N1_S2_RPP30 <NA>   <NA>    
    ##  6 Plate2-A01 AAAGAACAACCTAGGACAATTCTATT    481 N1_S2_RPP30 <NA>   <NA>    
    ##  7 Plate2-A01 ATAAACAACCTAGGACTCTTCTATTA    470 N1_S2_RPP30 <NA>   <NA>    
    ##  8 Plate2-A01 AAAGAACAACCTAGGACTTTTTATTA    436 N1_S2_RPP30 <NA>   <NA>    
    ##  9 Plate2-A01 ATAGAACAACCTAGGGACTCTTCTAT    436 N1_S2_RPP30 <NA>   <NA>    
    ## 10 Plate2-A01 ATAGCACAACCTAGGATTTTCTATTA    414 N1_S2_RPP30 <NA>   <NA>    
    ## # … with 1,695 more rows
…
df
```

    ## # A tibble: 900 x 23
    ##    Sample_ID sequence target amplicon bc_set  Count Plate_ID RNA_copies
    ##    <chr>     <chr>    <chr>  <chr>    <chr>   <dbl> <chr>         <dbl>
    ##  1 Plate1-A… TATCTTC… SARS-… S2       N1_S2…      0 Plate1            0
    ##  2 Plate1-A… CGCAGAG… RPP30  RPP30    N1_S2…      0 Plate1            0
    ##  3 Plate1-A… ATAGAAC… spike  S2_spike N1_S2…     10 Plate1            0
    ##  4 Plate1-A… TGGTTTC… spike  N1_spike N1_S2…  99436 Plate1            0
    ##  5 Plate1-A… ACCAAAC… SARS-… N1       N1_S2…      0 Plate1            0
    ##  6 Plate1-A… TATCTTC… SARS-… S2       N1_S2…      0 Plate1            0
    ##  7 Plate1-A… CGCAGAG… RPP30  RPP30    N1_S2…      3 Plate1            0
    ##  8 Plate1-A… ATAGAAC… spike  S2_spike N1_S2…     12 Plate1            0
    ##  9 Plate1-A… TGGTTTC… spike  N1_spike N1_S2… 143016 Plate1            0
    ## 10 Plate1-A… ACCAAAC… SARS-… N1       N1_S2…      5 Plate1            0
    ## # … with 890 more rows, and 15 more variables: RNA_origin <chr>,
    ## #   spike_copies <dbl>, lysate <chr>, nCoV_primer_nM <dbl>,
    ## #   RPP30_primer_nM <dbl>, RPP30_inner_primer_nM <dbl>, RT_temp <dbl>,
    ## #   PCR_cycles <dbl>, Sample_Well <chr>, index <chr>, index2 <chr>,
    ## #   bc_len <dbl>, Row <fct>, Col <chr>, expected_amplicon <chr>
…
``` r
df.wide <- df %>%
  select(Sample_ID, Plate_ID, Row, Col, bc_set, expected_amplicon, RNA_copies, amplicon, Count) %>%
  filter(amplicon == 'RPP30' | str_detect(expected_amplicon, str_sub(amplicon, end=2)))  %>%
  mutate(amplicon = case_when(amplicon == 'RPP30' ~ 'RPP30',
                              str_detect(amplicon, 'spike') ~ 'Spike',
                              TRUE ~ 'RNA')
  ) %>%
  spread(amplicon, Count) 
df.wide
```

    ## # A tibble: 180 x 10
    ##    Sample_ID Plate_ID Row   Col   bc_set expected_amplic… RNA_copies   RNA
    ##    <chr>     <chr>    <fct> <chr> <chr>  <chr>                 <dbl> <dbl>
    ##  1 Plate1-A… Plate1   A     01    N1_S2… N1 Expected             0       0
    ##  2 Plate1-A… Plate1   A     02    N1_S2… N1 Expected             0       5
    ##  3 Plate1-A… Plate1   A     03    N1_S2… N1 Expected             0       0
    ##  4 Plate1-A… Plate1   A     04    N1_S2… N1 Expected             0       8
    ##  5 Plate1-A… Plate1   A     05    N1_S2… N1 Expected            32.9  1727
    ##  6 Plate1-A… Plate1   A     06    N1_S2… N1 Expected            32.9  2946
    ##  7 Plate1-A… Plate1   A     07    N1_S2… N1 Expected            32.9  1865
    ##  8 Plate1-A… Plate1   A     08    N1_S2… N1 Expected            32.9  2081
    ##  9 Plate1-B… Plate1   B     01    N1_S2… N1 Expected             0       0
    ## 10 Plate1-B… Plate1   B     02    N1_S2… N1 Expected             0     392
    ## # … with 170 more rows, and 2 more variables: RPP30 <dbl>, Spike <dbl>
…
df.wide.nulls <- df.wide %>%
  filter(RNA_copies != 0) %>%
  nest(null.df = c(-expected_amplicon)) %>%
  inner_join(nulls, by="expected_amplicon") %>%
  mutate(combo = map2(data.x, data.y, bind_rows)) %>%
  select(-data.x, -data.y) %>%
  unnest(combo)
df.wide.nulls
```

    ## # A tibble: 180 x 10
    ##    expected_amplic… Sample_ID Plate_ID Row   Col   bc_set RNA_copies   RNA
    ##    <chr>            <chr>     <chr>    <fct> <chr> <chr>       <dbl> <dbl>
    ##  1 N1 Expected      Plate1-A… Plate1   A     05    N1_S2…       32.9  1727
    ##  2 N1 Expected      Plate1-A… Plate1   A     06    N1_S2…       32.9  2946
    ##  3 N1 Expected      Plate1-A… Plate1   A     07    N1_S2…       32.9  1865
    ##  4 N1 Expected      Plate1-A… Plate1   A     08    N1_S2…       32.9  2081
    ##  5 N1 Expected      Plate1-B… Plate1   B     05    N1_S2…       98.8  5557
    ##  6 N1 Expected      Plate1-B… Plate1   B     06    N1_S2…       98.8  7588
    ##  7 N1 Expected      Plate1-B… Plate1   B     07    N1_S2…       98.8  8325
    ##  8 N1 Expected      Plate1-B… Plate1   B     08    N1_S2…       98.8  6194
    ##  9 N1 Expected      Plate1-C… Plate1   C     05    N1_S2…      296.  23651
    ## 10 N1 Expected      Plate1-C… Plate1   C     06    N1_S2…      296.  26484
    ## # … with 170 more rows, and 2 more variables: RPP30 <dbl>, Spike <dbl>
…
